material FadeGameEndMaterial
{
     technique
     {
         pass
         {
             scene_blend alpha_blend
 
             texture_unit
             {
                texture gray.png
             }
         }
     }
}
