material minsect_mat2
{
	technique
	{
		pass
		{
			ambient 1 1 1 1
			diffuse 1 1 1 1
			specular 0.2 0.29 0.32 1 6.9504
			
			texture_unit
			{
				texture minsect_mat_Flattened_Diffuse.png
			}
		}

	}

}