material basica_sanefa_circ_mat
{
	technique
	{
		pass
		{
			ambient 1 1 1 1
			diffuse 1 1 1 1

			texture_unit
			{
				texture basica_sanefa_OFF.png
			}
		}

	}

}

material basica_sanefa_circ_0_mat
{
	technique
	{
		pass
		{
			ambient 1.0 1.0 1.0 1
			diffuse 1.0 1.0 1.0 1

			texture_unit
			{
				anim_texture basica_sanefa_ON.png basica_sanefa_OFF.png basica_sanefa_OFF.png basica_sanefa_OFF.png 1
			}
		}

	}
}

material basica_sanefa_circ_1_mat
{
	technique
	{
		pass
		{
			ambient 1.0 1.0 1.0 1
			diffuse 1.0 1.0 1.0 1

			texture_unit
			{
				anim_texture basica_sanefa_OFF.png basica_sanefa_ON.png basica_sanefa_OFF.png basica_sanefa_OFF.png 1
			}
		}

	}
}

material basica_sanefa_circ_2_mat
{
	technique
	{
		pass
		{
			ambient 1.0 1.0 1.0 1
			diffuse 1.0 1.0 1.0 1

			texture_unit
			{
				anim_texture basica_sanefa_OFF.png basica_sanefa_OFF.png basica_sanefa_ON.png basica_sanefa_OFF.png 1
			}
		}

	}
}

material basica_sanefa_circ_3_mat
{
	technique
	{
		pass
		{
			ambient 1.0 1.0 1.0 1
			diffuse 1.0 1.0 1.0 1

			texture_unit
			{
				anim_texture basica_sanefa_OFF.png basica_sanefa_OFF.png basica_sanefa_OFF.png basica_sanefa_ON.png 1
			}
		}

	}
}