material central_03_04_sanefa_mat
{
	technique
	{
		pass
		{
			ambient 1.0 1.0 1.0 1
			diffuse 1.0 1.0 1.0 1

			texture_unit
			{
				texture central_03_04_OFF.png
			}
		}

	}
}

material central_03_04_sanefa_0_mat
{
	technique
	{
		pass
		{
			ambient 1.0 1.0 1.0 1
			diffuse 1.0 1.0 1.0 1

			texture_unit
			{
				anim_texture central_03_04_ON.png central_03_04_OFF.png central_03_04_OFF.png central_03_04_OFF.png 1
			}
		}

	}
}

material central_03_04_sanefa_1_mat
{
	technique
	{
		pass
		{
			ambient 1.0 1.0 1.0 1
			diffuse 1.0 1.0 1.0 1

			texture_unit
			{
				anim_texture central_03_04_OFF.png central_03_04_ON.png central_03_04_OFF.png central_03_04_OFF.png 1
			}
		}

	}
}

material central_03_04_sanefa_2_mat
{
	technique
	{
		pass
		{
			ambient 1.0 1.0 1.0 1
			diffuse 1.0 1.0 1.0 1

			texture_unit
			{
				anim_texture central_03_04_OFF.png central_03_04_OFF.png central_03_04_ON.png central_03_04_OFF.png 1
			}
		}

	}
}

material central_03_04_sanefa_3_mat
{
	technique
	{
		pass
		{
			ambient 1.0 1.0 1.0 1
			diffuse 1.0 1.0 1.0 1

			texture_unit
			{
				anim_texture central_03_04_OFF.png central_03_04_OFF.png central_03_04_OFF.png central_03_04_ON.png 1
			}
		}

	}
}