// A jet engine (of sorts).
particle_system raigpointer
{
	quota	2000
	local_space true
	material	PE/raig_pointer
	particle_width	1
	particle_height	1
	cull_each	false
	renderer	billboard
	billboard_type	oriented_self

	emitter Point
	{
		angle	0
		colour	0.6 0.6 0.6 0
		colour_range_start	0.6 0.6 0.6 0
		colour_range_end	0.6 0.6 0.6 0
		direction	0 1 0
		emission_rate	10
		position	0 0 0
		velocity	15
		velocity_min	11.88
		velocity_max	11.88
		time_to_live	4.5
		time_to_live_min	4.5
		time_to_live_max	4.5
		duration	0
		duration_min	0
		duration_max	0
		repeat_delay	0
		repeat_delay_min	0
		repeat_delay_max	0
	}

	affector ColourFader
	{
		red	0
		green	0
		blue	0
		alpha	0
	}
}
