material rampa_04_01_dreta_mat
{
	technique
	{
		pass
		{
			ambient 1 1 1 1
			diffuse 1 1 1 1

			texture_unit
			{
				texture rampa_04_01_dreta.png
			}
		}

	}
}

material rampa_04_01_esquerra_mat
{
	technique
	{
		pass
		{
			ambient 1 1 1 1
			diffuse 1 1 1 1

			texture_unit
			{
				texture rampa_04_02_esquerra.png
			}
		}

	}
}

material rampa_04_03_esquerra_inferior_mat
{
	technique
	{
		pass
		{
			ambient 1 1 1 1
			diffuse 1 1 1 1

			texture_unit
			{
				texture rampa_04_03_esquerra_inferior.png
			}
		}

	}
}

material rampa_04_04_dreta_inferior_mat
{
	technique
	{
		pass
		{
			ambient 1 1 1 1
			diffuse 1 1 1 1

			texture_unit
			{
				texture rampa_04_04_dreta_inferior.png
			}
		}

	}
}