material magnet_blue_mat
{
	technique
	{
		pass
		{
			ambient 1 1 1 1
			diffuse 0.8 0.8 0.8 0.7
			specular 0.5 0.5 0.5 1 89.6
			
			
			texture_unit
			{
				texture magnet_blue_text.png
			}
		}

	}
}
